0.00 0.21 0.982317
0.21 0.42 0.983038
0.42 0.63 0.983778
0.63 0.84 0.982944
0.84 1.05 0.982630
1.05 1.37 0.984439
1.37 1.52 0.983721
1.52 1.74 0.983517
1.74 1.95 0.983288
1.95 2.18 0.984228
2.18 2.50 0.979626
