*
* Data taken from:
*
* arXiv:1406.7844, "ATLAS 7 TeV single top t-channel"

&Data
   Name = 'ATLAS 7 TeV single top t-channel, R'
  
   IndexDataset = 254
   Reaction = 'HathorSingleTop'
   TheoryType = 'expression','expression'
   TermName   = 'T','A'
   TermType   = 'reaction','reaction'
   TermSource = 'HathorSingleTop','HathorSingleTop'
   TermInfo   = 'SqrtS=7000:ppbar=0:precisionLevel=2:antitopquark=0','SqrtS=7000:ppbar=0:precisionLevel=2:antitopquark=1'
   TheorExpr  = 'T/A'

   
   NDATA = 1
   NColumn = 6
   ColumnType = 3*'Bin','Sigma',2*'Error'   ! three dummy bins, one cross section, three uncertainties
   ColumnName = 'a','b','c','sigma','stat','syst_a7R'
   Percent = 2*False

&End
&PlotDesc
   PlotN = 1
   PlotDefColumn = 'b'
   PlotDefValue = 0., 700.
   PlotVarColumn = 'b'
   PlotOptions(1)  = 'Experiment:ATLAS@ExtraLabel: R_{t/tbar} 7 TeV @XTitle:P_{T} @YTitle:#sigma (pb)'
&End 
0. 200. 1000. 2.04 0.13 0.12
