0	0.5	97  	133  	1.08921
0	0.5	133  	174  	1.09129
0	0.5	174  	220  	1.09156
0	0.5	220  	272  	1.09176
0	0.5	272  	330  	1.09183
0	0.5	330  	395  	1.09298
0	0.5	395  	468  	1.0961 
0	0.5	468  	548  	1.09886
0	0.5	548  	638  	1.10013
0	0.5	638  	737  	1.10099
0	0.5	737  	846  	1.10349
0	0.5	846  	967  	1.10841
0	0.5	967  	1101  	1.11271
0	0.5	1101  	1248  	1.11425
0	0.5	1248  	1410  	1.11974
0	0.5	1410  	1588  	1.12678
0	0.5	1588  	1784  	1.13207
0	0.5	1784  	2000  	1.13825
0	0.5	2000  	2238  	1.14917
0	0.5	2238  	2500  	1.15977
0	0.5	2500  	2787  	1.17143
0	0.5	2787  	3103  	1.19026
