
&DATA
  Name = 'ATLAS Jet data 3.6 <= |y| < 4.4 R=0.4'
  NDATA = 6
  NColumn = 28
  ColumnType = 2*'Bin',2*'Dummy','Sigma','Error',22*'Error'
  ColumnName = 'pt1','pt2','YBinSize','NPCorr','Sigma','stat', 
		'JES1_RelSys_6' , 'JES2_RelSys_12' , 'JES3_RelSys_18' , 'JES4_RelSys_24' , 'JES5_RelSys_30' , 'JES6_RelSys_31' , 
         'JES7_RelSys_37' , 'JES8_RelSys_43' , 'JES9_RelSys_49' , 'JES10_RelSys_55' , 'JES11_RelSys_61' , 
         'JES12_RelSys_67' , 'JES13_RelSys_73' , 'UnfClosureRelSys_74' , 'MatchingRelSys_75' , 'JERRelSys_81' , 
         'YResoRelSys_82' , 'RecoEffRelSys_86' , 'atlas_lumi2010' , 'JESPileUp_RelSys_uncorr' , 'TriggerEffRelSys_uncorr' , 
         'CleaningEffRelSys_uncorr'
  NInfo   = 1
  DataInfo = 7000.
  CInfo    = 'sqrt(S)'
  IndexDataset = 26 
  Reaction  = 'pp jets APPLGRID'
  TheoryType = 'expression'
  TermName = 'A1', 'K'
  TermType = 'applgrid','kfactor'
  TermSource = 'datafiles/lhc/atlas/jets/1112.6297/atlas-incljets-R04-eta7.root', 'datafiles/lhc/atlas/jets/1112.6297/inclusivejetsKF_R04_36_44.dat'
  TheorExpr= 'K*A1' 
  Percent   = 50*True
&END
&PlotDesc
PlotN = 1
PlotDefColumn = 'pt2'
PlotDefValue = 20., 1500.
PlotOptions(1)  = 'Experiment:ATLAS@ExtraLabel:pp #rightarrow jets; #sqrt{s} = 7 TeV; R=0.4 3.6 #leq |y| < 4.8 @Title:2010 @XTitle: #p_{T}[GeV] @YTitle: d#sigma/dyd#p_{T} [pb/GeV] @Xlog@Ylog'
&End
20.000000	30.000000	1.600000	0.904657	818807.698000	1.043771	11.707116	8.821636	11.473859	3.432901	4.680540	68.414433	2.306713	4.883176	5.185014	0.001077	0.018727	3.193686	0.003145	0.077891	0.293207	15.241256	0.960246	2.000000	3.400000	5.981359	1.000000	0.015213	
30.000000	45.000000	1.600000	0.909658	86397.549685	1.134388	5.219036	13.428450	7.898897	2.158591	2.605243	82.662534	2.935026	3.546662	5.361704	0.035421	0.050950	3.597310	0.125390	0.077673	0.658247	4.390751	0.522614	1.000000	3.400000	10.439209	1.000000	0.011578	
45.000000	60.000000	1.600000	0.913417	8825.123023	1.953916	2.575118	10.189571	8.381699	1.869462	2.596298	59.584195	4.170203	2.719292	6.304176	0.259564	0.395699	3.420104	0.735998	0.212799	0.737420	1.039492	0.433181	1.000000	3.400000	6.395590	1.000000	0.007216	
60.000000	80.000000	1.600000	0.916397	920.079945	2.784052	0.915541	11.167731	8.935723	2.987790	4.970022	41.179661	6.461270	3.836744	8.733584	1.110908	0.096395	1.175301	4.972827	0.050339	1.767832	2.077286	0.429516	1.000000	3.400000	6.399866	1.000000	0.023754	
80.000000	110.000000	1.600000	0.919355	53.812702	3.939978	0.632625	13.421358	9.937188	2.172564	2.982073	30.903588	7.724699	3.424321	11.562590	3.932006	1.633532	0.591162	10.843858	1.037869	0.190724	6.715796	0.653391	1.000000	3.400000	7.688062	1.000000	0.018837	
110.000000	160.000000	1.600000	0.922534	0.542165	15.684691	0.083342	16.765933	13.272850	30.443660	6.926826	29.897312	9.104245	5.766724	15.947952	8.796682	0.022227	0.338998	16.945292	1.317254	0.030671	6.071638	0.503681	1.000000	3.400000	9.485914	1.000000	0.029124	
