&Data
Name = 'LHCb 5TeV [1610.02230] ds'
IndexDataset = 422

TermName = 'NLO','BMAX','BMIN'
TermSource = 'cbdiff','KFactor','KFactor'
TermInfo =
'MS_MASS=1:Order=NLO:FinalState=ds:FragFrac=0.0797:energy=5000.0:steer_q=1:steer_a=1:pT=0.000000,1.000000,2.000000,3.000000,4.000000,5.000000,6.000000,7.000000,8.000000,9.000000,10.000000:y=2.0,2.5,3.0,3.5,4.0,4.5:steer_ptmin=0.001000:steer_ptmax=25.000000:steer_npt=40:steer_nptsm=400:steer_ymin=2.000000:steer_ymax=6.000000:steer_ny=40:steer_nsfnb=500:steer_nx3=25:steer_nx4=125:steer_nbz=100:steer_xmin=0.0000000100:steer_xmax=1.000000:steer_mf2min=1.000000:steer_mf2max=3000.000000'
'DataColumn=pTmax',
'DataColumn=pTmin',
TheorExpr = 'NLO/(BMAX-BMIN)'
NData        = 50
NColumn      = 14
ColumnType   = 'Flag',6*'Bin','Sigma',6*'Error'
ColumnName   = 'binflag','ymin','ymax','pTmin','pTmax','yav','pTav','x-section','stat','uncor','ds_brat','ds_ffrc','lhcb-5tev_charm_trac','lhcb-5tev_lumi'
Percent      = 6*true
&End
&PlotDesc
PlotN = 5
PlotDefColumn   = 'ymin'
PlotDefValue    = 1.990000,2.490000,2.990000,3.490000,3.990000,4.490000
PlotVarColumn   = 'pTav'
PlotOptions(1)  = 'Experiment:LHCb @ExtraLabel:pp #rightarrow D^{#pm}_{s}, #sqrt{s} = 5 TeV, 2.0 < y < 2.5 @XTitle: p_{T} [GeV] @YTitle: d#sigma/dp_{T} [#mub/GeV] @Title:2.0 < y < 2.5@Ylog'
PlotOptions(2)  = 'Experiment:LHCb @ExtraLabel:pp #rightarrow D^{#pm}_{s}, #sqrt{s} = 5 TeV, 2.5 < y < 3.0 @XTitle: p_{T} [GeV] @YTitle: d#sigma/dp_{T} [#mub/GeV] @Title:2.0 < y < 2.5@Ylog'
PlotOptions(3)  = 'Experiment:LHCb @ExtraLabel:pp #rightarrow D^{#pm}_{s}, #sqrt{s} = 5 TeV, 3.0 < y < 3.5 @XTitle: p_{T} [GeV] @YTitle: d#sigma/dp_{T} [#mub/GeV] @Title:2.0 < y < 2.5@Ylog'
PlotOptions(4)  = 'Experiment:LHCb @ExtraLabel:pp #rightarrow D^{#pm}_{s}, #sqrt{s} = 5 TeV, 3.5 < y < 4.0 @XTitle: p_{T} [GeV] @YTitle: d#sigma/dp_{T} [#mub/GeV] @Title:2.0 < y < 2.5@Ylog'
PlotOptions(5)  = 'Experiment:LHCb @ExtraLabel:pp #rightarrow D^{#pm}_{s}, #sqrt{s} = 5 TeV, 4.0 < y < 4.5 @XTitle: p_{T} [GeV] @YTitle: d#sigma/dp_{T} [#mub/GeV] @Title:2.0 < y < 2.5@Ylog'
&End
*
*  binflag      ymin      ymax     pTmin     pTmax       yav      pTav           xsec      stat     uncor dbrat dffrc ltrac llumi
* y bin #1
         0      2.00      2.50      0.00      1.00      2.25      0.50    0.00000e+00      0.00      0.00  0.00  0.00  0.00  0.00
         1      2.00      2.50      1.00      2.00      2.25      1.50    1.49000e+01     15.44     19.93  5.80  5.02  4.00  3.80
         1      2.00      2.50      2.00      3.00      2.25      2.50    1.36500e+01      5.49     14.62  5.80  5.02  4.00  3.80
         1      2.00      2.50      3.00      4.00      2.25      3.50    6.25000e+00      4.80      9.47  5.80  5.02  4.00  3.80
         1      2.00      2.50      4.00      5.00      2.25      4.50    2.98000e+00      5.03      6.38  5.80  5.02  4.00  3.80
         1      2.00      2.50      5.00      6.00      2.25      5.50    1.36500e+00      6.41      5.81  5.80  5.02  4.00  3.80
         1      2.00      2.50      6.00      7.00      2.25      6.50    7.35000e-01      7.48      5.76  5.80  5.02  4.00  3.80
         1      2.00      2.50      7.00      8.00      2.25      7.50    4.85000e-01      9.28      6.50  5.80  5.02  4.00  3.80
         1      2.00      2.50      8.00      9.00      2.25      8.50    1.89500e-01     13.72      6.88  5.80  5.02  4.00  3.80
         1      2.00      2.50      9.00     10.00      2.25      9.50    1.42000e-01     14.79      9.14  5.80  5.02  4.00  3.80
* y bin #2
         0      2.50      3.00      0.00      1.00      2.75      0.50    0.00000e+00      0.00      0.00  0.00  0.00  0.00  0.00
         1      2.50      3.00      1.00      2.00      2.75      1.50    2.08000e+01      6.01      7.28  5.80  5.02  4.00  3.80
         1      2.50      3.00      2.00      3.00      2.75      2.50    1.37000e+01      2.92      4.75  5.80  5.02  4.00  3.80
         1      2.50      3.00      3.00      4.00      2.75      3.50    6.20000e+00      3.23      2.76  5.80  5.02  4.00  3.80
         1      2.50      3.00      4.00      5.00      2.75      4.50    2.85500e+00      3.50      3.33  5.80  5.02  4.00  3.80
         1      2.50      3.00      5.00      6.00      2.75      5.50    1.09000e+00      5.05      3.45  5.80  5.02  4.00  3.80
         1      2.50      3.00      6.00      7.00      2.75      6.50    6.55000e-01      6.11      4.45  5.80  5.02  4.00  3.80
         1      2.50      3.00      7.00      8.00      2.75      7.50    3.21000e-01      8.10      5.26  5.80  5.02  4.00  3.80
         1      2.50      3.00      8.00      9.00      2.75      8.50    1.55500e-01     11.25      6.72  5.80  5.02  4.00  3.80
         1      2.50      3.00      9.00     10.00      2.75      9.50    1.06000e-01     13.21      8.00  5.80  5.02  4.00  3.80
* y bin #3
         0      3.00      3.50      0.00      1.00      3.25      0.50    0.00000e+00      0.00      0.00  0.00  0.00  0.00  0.00
         1      3.00      3.50      1.00      2.00      3.25      1.50    1.80000e+01      6.25      7.30  5.80  5.02  4.00  3.80
         1      3.00      3.50      2.00      3.00      3.25      2.50    1.12000e+01      3.12      4.44  5.80  5.02  4.00  3.80
         1      3.00      3.50      3.00      4.00      3.25      3.50    4.71000e+00      3.18      3.68  5.80  5.02  4.00  3.80
         1      3.00      3.50      4.00      5.00      3.25      4.50    2.26000e+00      3.98      3.77  5.80  5.02  4.00  3.80
         1      3.00      3.50      5.00      6.00      3.25      5.50    1.15000e+00      4.78      4.39  5.80  5.02  4.00  3.80
         1      3.00      3.50      6.00      7.00      3.25      6.50    4.21500e-01      7.35      4.99  5.80  5.02  4.00  3.80
         1      3.00      3.50      7.00      8.00      3.25      7.50    2.30500e-01      9.54      5.77  5.80  5.02  4.00  3.80
         1      3.00      3.50      8.00      9.00      3.25      8.50    1.28000e-01     13.28      8.29  5.80  5.02  4.00  3.80
         1      3.00      3.50      9.00     10.00      3.25      9.50    7.35000e-02     17.01      9.71  5.80  5.02  4.00  3.80
* y bin #4
         0      3.50      4.00      0.00      1.00      3.75      0.50    0.00000e+00      0.00      0.00  0.00  0.00  0.00  0.00
         1      3.50      4.00      1.00      2.00      3.75      1.50    1.26500e+01      9.09      7.35  5.80  5.02  4.00  3.80
         1      3.50      4.00      2.00      3.00      3.75      2.50    7.30000e+00      4.11      4.63  5.80  5.02  4.00  3.80
         1      3.50      4.00      3.00      4.00      3.75      3.50    3.78500e+00      4.23      3.62  5.80  5.02  4.00  3.80
         1      3.50      4.00      4.00      5.00      3.75      4.50    1.40500e+00      5.69      4.27  5.80  5.02  4.00  3.80
         1      3.50      4.00      5.00      6.00      3.75      5.50    6.80000e-01      7.35      4.52  5.80  5.02  4.00  3.80
         1      3.50      4.00      6.00      7.00      3.75      6.50    2.93000e-01     11.09      7.80  5.80  5.02  4.00  3.80
         1      3.50      4.00      7.00      8.00      3.75      7.50    1.61500e-01     14.24     12.52  5.80  5.02  4.00  3.80
         0      3.50      4.00      8.00      9.00      3.75      8.50    0.00000e+00      0.00      0.00  0.00  0.00  0.00  0.00
         0      3.50      4.00      9.00     10.00      3.75      9.50    0.00000e+00      0.00      0.00  0.00  0.00  0.00  0.00
* y bin #5
         0      4.00      4.50      0.00      1.00      4.25      0.50    0.00000e+00      0.00      0.00  0.00  0.00  0.00  0.00
         0      4.00      4.50      1.00      2.00      4.25      1.50    0.00000e+00      0.00      0.00  0.00  0.00  0.00  0.00
         1      4.00      4.50      2.00      3.00      4.25      2.50    4.65000e+00     10.75     12.11  5.80  5.02  4.00  3.80
         1      4.00      4.50      3.00      4.00      4.25      3.50    2.24500e+00      9.35      6.74  5.80  5.02  4.00  3.80
         1      4.00      4.50      4.00      5.00      4.25      4.50    9.70000e-01     12.37      7.66  5.80  5.02  4.00  3.80
         1      4.00      4.50      5.00      6.00      4.25      5.50    3.90000e-01     19.23     10.01  5.80  5.02  4.00  3.80
         0      4.00      4.50      6.00      7.00      4.25      6.50    0.00000e+00      0.00      0.00  0.00  0.00  0.00  0.00
         0      4.00      4.50      7.00      8.00      4.25      7.50    0.00000e+00      0.00      0.00  0.00  0.00  0.00  0.00
         0      4.00      4.50      8.00      9.00      4.25      8.50    0.00000e+00      0.00      0.00  0.00  0.00  0.00  0.00
         0      4.00      4.50      9.00     10.00      4.25      9.50    0.00000e+00      0.00      0.00  0.00  0.00  0.00  0.00
