! N.B.: -This table is for evaluating scale variations muf=2, mur=1
!       -SMEFT
!
! 2016 Inclusive jet cross sections at 13 TeV, corresponding to 33.5 fb-1
! by CMS Collaboration
! See arXiv:2111.10431
!
! Separate data and theory tables for each y bin, and correlations across pT and y-bins are provided
! N.B. set NLO order when using these files. NLO contribution contained in NNLO grids.
&Data
  Name = 'CMS inclusive jets 13 TeV, 1.5 < |y| < 2.0'
  Reaction = 'pp jets fastNLO'

  NDATA = 18
  NColumn = 38
  ColumnType = 'Flag', 'Bin', 'Bin', 'Bin', 'Bin', 'Sigma', 'Error', 'Error', 'Error', 'Error', 'Error', 'Error', 'Error', 'Error', 'Error', 'Error', 'Error', 'Error', 'Error', 'Error', 'Error', 'Error', 'Error', 'Error', 'Error', 'Error', 'Error', 'Error', 'Error', 'Error', 'Error', 'Error', 'Error', 'Error', 'Error', 'Error', 'Error', 'Error'
  ColumnName = 'binFlag', 'ylow', 'yhigh', 'pTlow', 'pThigh', 'Sigma', 'stat', 'lumi', 'JER', 'PU', 'miss', 'fake', 'uncor', 'AbsoluteScale', 'AbsoluteMPFBias', 'Fragmentation', 'SinglePionECAL', 'SinglePionHCAL', 'FlavorQCD', 'TimePtEta', 'RelativeJEREC1', 'RelativeJEREC2', 'RelativePtBB', 'RelativePtEC1', 'RelativePtEC2', 'RelativeBal', 'RelativeSample', 'RelativeFSR', 'RelativeStatFSR', 'RelativeStatEC', 'PileUpDataMC', 'PileUpPtRef', 'PileUpPtBB', 'PileUpPtEC1', 'PileUpPtEC2', 'model', 'stat', 'NP'

  NInfo = 4
  DataInfo = 13000., 1., -1., -1.
  CInfo = 'sqrt(S)', 'PublicationUnits', 'MurDef', 'MufDef'

  IndexDataset = 304
  TheoryType = 'expression'
  TermName = 'F', 'kF', 'NP', 'EW', 'CI'
  TermType = 'reaction', 'reaction', 'reaction', 'reaction', 'reaction'
  TermSource = 'fastNLO', 'KFactor', 'KFactor', 'KFactor', 'CIJET'
  TermInfo = 'Filename=datafiles/lhc/cms/jets/2111.10431/FastNLO/1jet.NNLO.fnl5332h_y3_ptjet.tab:Units=publication:ScaleFacMuR=1.0:ScaleFacMuF=2.0',
             'FileName=datafiles/lhc/cms/jets/2111.10431/NLO+NLL/kFactor_NLO+NLL_muf2mur1_y3.dat:FileColumn=5',
             'FileName=datafiles/lhc/cms/jets/2111.10431/NP/NP_y3.dat:FileColumn=5',
             'FileName=datafiles/lhc/cms/jets/2111.10431/EW/EW_y3.dat:FileColumn=5',
             'Filename=datafiles/lhc/cms/jets/2111.10431/CI/cms13r07sindCut_y3.tab.ci:ScaleFacMuR=1.0:ScaleFacMuF=2.0'
  TheorExpr = 'F*kF*NP*EW+CI'
  Percent = 32*True
&End
&PlotDesc
   PlotN = 5
   PlotDefColumn = 'ylow'
   PlotDefValue = -0.5, 0, 0.5, 1.0, 1.5
   PlotVarColumn = 'pTlow'
   PlotOptions(1) = 'Experiment:CMS@Title: 13 TeV ak7 |y| < 0.5 @XTitle:p_{T} (GeV)@YTitle:#sigma_{jet}@Xmin:74@Xmax:3832.@Xlog@Ylog@YminR:0.8@YmaxR:1.2'
   PlotOptions(2) = 'Experiment:CMS@Title: 13 TeV ak7 0.5 < |y| < 1.0 @XTitle:p_{T} (GeV)@YTitle:#sigma_{jet}@Xmin:74@Xmax:3832.@Xlog@Ylog@YminR:0.8@YmaxR:1.2'
   PlotOptions(3) = 'Experiment:CMS@Title: 13 TeV ak7 1.0 < |y| < 1.5 @XTitle:p_{T} (GeV)@YTitle:#sigma_{jet}@Xmin:74@Xmax:3832.@Xlog@Ylog@YminR:0.8@YmaxR:1.2'
   PlotOptions(4) = 'Experiment:CMS@Title: 13 TeV ak7 1.5 < |y| < 2.0 @XTitle:p_{T} (GeV)@YTitle:#sigma_{jet}@Xmin:74@Xmax:3832.@Xlog@Ylog@YminR:0.8@YmaxR:1.2'
&End
*             binFlag                ylow               yhigh               pTlow              pThigh               Sigma                stat                lumi                 JER                  PU                miss                fake                Pref       AbsoluteScale     AbsoluteMPFBias       Fragmentation      SinglePionECAL      SinglePionHCAL           FlavorQCD           TimePtEta      RelativeJEREC1      RelativeJEREC2        RelativePtBB       RelativePtEC1       RelativePtEC2         RelativeBal      RelativeSample         RelativeFSR     RelativeStatFSR      RelativeStatEC        PileUpDataMC         PileUpPtRef          PileUpPtBB         PileUpPtEC1         PileUpPtEC2               model                stat                  NP
                   1                 1.5                   2                  97                 133             9859.21            0.517796            1.200000            2.657729           -0.075578           -0.133948            0.018399            0.301156           -0.787532           -1.270587           -0.252885            0.393929            0.112516           -3.511791           -2.418887           -1.298452            0.107758            0.003307            0.008215            0.001951            0.821257            2.281670            0.985278           -0.172097           -0.692064           -0.457842           -0.213355            0.022330           -0.397316            0.003387            1.652028            0.332146            1.553335
                   1                 1.5                   2                 133                 174             2086.13            0.675946            1.200000            1.707918           -0.153524           -0.088156            0.001743            0.468400           -0.861149           -1.337850           -0.213032            0.236087            0.093008           -3.189386           -2.584667           -1.197439            0.025880           -0.001666            0.017030            0.000350            0.616508            1.964311            0.630117           -0.171382           -0.842371           -0.399559           -0.167833            0.002598           -0.193584           -0.000593            0.305188            0.294939            1.408157
                   1                 1.5                   2                 174                 220             539.355            0.535002            1.200000            1.319898           -0.173988           -0.069577           -0.002558            0.675381           -0.874277           -1.376498           -0.135591            0.135676            0.052340           -2.833818           -2.708455           -1.132846            0.010547           -0.000515           -0.009720            0.000282            0.458296            1.968687            0.251586           -0.185749           -0.925831           -0.334694           -0.134027           -0.002563           -0.075943           -0.000805            0.228810            0.234365            1.196906
                   1                 1.5                   2                 220                 272             151.301            0.624010            1.200000            1.282458           -0.175571           -0.063214           -0.002377            0.849405           -0.854484           -1.393341           -0.042047            0.042921            0.007250           -2.462523           -2.777526           -1.079107           -0.008888            0.001968           -0.028888            0.000475            0.355164            2.007374           -0.117612           -0.179800           -0.985457           -0.252533           -0.091235           -0.002671            0.030665           -0.000655            0.330187            0.199671            0.994625
                   1                 1.5                   2                 272                 330              47.807            0.447779            1.200000            1.248461           -0.174334           -0.062488           -0.001005            0.916514           -0.843247           -1.414117            0.046995           -0.042911           -0.034428           -2.128218           -2.834308           -1.030315            0.007380            0.002757           -0.049774            0.000477            0.245101            2.037507           -0.457613           -0.171748           -1.045895           -0.180577           -0.047476           -0.001578            0.091626           -0.000264            0.219536            0.176955            0.819358
                   1                 1.5                   2                 330                 395             15.4585            0.343622            1.200000            1.217146           -0.176867           -0.064430            0.000198            0.849305           -0.871581           -1.453014            0.117250           -0.112100           -0.069688           -1.840551           -2.902741           -0.985380            0.006023            0.003525           -0.064282            0.000406            0.129937            2.061993           -0.800894           -0.168994           -1.120836           -0.127689           -0.007215           -0.001010            0.143462            0.000130            0.147709            0.143460            0.672877
                   1                 1.5                   2                 395                 468             5.21107            0.324608            1.200000            1.187806           -0.185433           -0.067796            0.000768            0.656256           -0.921505           -1.518837            0.180070           -0.180803           -0.100297           -1.589640           -2.997919           -0.943285            0.007000            0.003918           -0.073941            0.000365           -0.020901            2.102231           -1.167939           -0.179935           -1.219084           -0.104934            0.028835           -0.001064            0.180819            0.000263           -0.042860            0.140180            0.551215
                   1                 1.5                   2                 468                 548             1.77232            0.330890            1.200000            1.160331           -0.200012           -0.072175            0.000677            0.508927           -0.979143           -1.616261            0.239963           -0.251453           -0.129745           -1.361880           -3.128292           -0.903869            0.005354            0.004421           -0.085336            0.000323           -0.133535            2.186259           -1.578152           -0.194255           -1.344945           -0.089735            0.053587           -0.001227            0.195762            0.000289           -0.213720            0.124683            0.451302
                   1                 1.5                   2                 548                 638            0.604429            0.287551            1.200000            1.189709           -0.219585           -0.077676            0.000132            0.425987           -1.064801           -1.749005            0.301312           -0.326499           -0.164386           -1.137082           -3.300517           -0.866521            0.002314            0.005615           -0.103017            0.000266           -0.249251            2.345121           -2.053801           -0.210535           -1.502292           -0.078789            0.071283           -0.001990            0.188410            0.000194           -0.186587            0.117775            0.368890
                   1                 1.5                   2                 638                 737             0.20023            0.319828            1.200000            1.280672           -0.242590           -0.084676           -0.000544            0.366956           -1.178967           -1.919971            0.368987           -0.407690           -0.206114           -0.894698           -3.519676           -0.830838           -0.001794            0.008309           -0.121313            0.000203           -0.369868            2.611301           -2.617204           -0.229416           -1.694098           -0.072863            0.079506           -0.002482            0.149516            0.000144           -0.214619            0.110934            0.300412
                   1                 1.5                   2                 737                 846           0.0644568            0.427053            1.200000            1.402667           -0.266909           -0.093613           -0.000957            0.341516           -1.305527           -2.129383            0.447094           -0.495485           -0.258037           -0.616947           -3.787120           -0.800207           -0.004138            0.013063           -0.140013            0.000170           -0.496744            3.013829           -3.283767           -0.255183           -1.920464           -0.073059            0.077731           -0.002131            0.071493           -0.000086            0.056026            0.105619            0.243789
                   1                 1.5                   2                 846                 967           0.0195092            0.649281            1.200000            1.565625           -0.290627           -0.105114           -0.000696            0.298025           -1.439012           -2.379775            0.541440           -0.593431           -0.326990           -0.282937           -4.106949           -0.780864           -0.003239            0.020033           -0.163835            0.000162           -0.628947            3.586248           -4.077432           -0.280808           -2.184089           -0.066770            0.065807           -0.001292           -0.053341           -0.000090            0.525732            0.109426            0.196442
                   1                 1.5                   2                 967                1101           0.0053995            1.105148            1.200000            1.780921           -0.311676           -0.119886            0.000685            0.285167           -1.597625           -2.673682            0.675644           -0.722275           -0.420778            0.127822           -4.483131           -0.764079            0.002896            0.029660           -0.216046            0.000145           -0.768314            4.364928           -5.022994           -0.303890           -2.487547           -0.057393            0.052441            0.003544           -0.233236            0.000101            1.174713            0.115156            0.156532
                   1                 1.5                   2                1101                1248          0.00134216            2.087998            1.200000            2.058784           -0.327741           -0.138553            0.003633            0.282379           -1.831398           -3.011053            0.847359           -0.875601           -0.541712            0.631711           -4.916240           -0.749688            0.016278            0.043208           -0.288202            0.000103           -0.916703            5.381458           -6.138102           -0.321753           -2.830720           -0.054358            0.032155            0.010133           -0.474865            0.000587            2.827126            0.125839            0.122923
                   1                 1.5                   2                1248                1410         0.000262932            4.703734            1.200000            2.409994           -0.336619           -0.161785            0.008591            0.252280           -2.115445           -3.459275            1.063278           -1.056860           -0.694144            1.245028           -5.407768           -0.737475            0.038900            0.061217           -0.383759            0.000071           -1.073461            6.670581           -7.443821           -0.338094           -3.214317            0.052809           -0.035671            0.020048           -0.784850            0.001461            4.984896            0.149435            0.094540
                   1                 1.5                   2                1410                1588         5.02736e-05           10.112242            1.200000            2.846216           -0.336135           -0.190326            0.016018            0.371337           -2.455800           -3.996002            1.330432           -1.269831           -0.882697            1.984548           -5.980926           -0.727235            0.072816            0.084072           -0.506391            0.000133           -1.239317            8.273310           -8.966048           -0.363243           -3.640040            0.146266           -0.091790            0.033930           -1.170347            0.002818            8.460285            0.196941            0.070431
                   0                 1.5                   2                1588                1784         4.13046e-06           46.163094            1.200000            3.378877           -0.324071           -0.224930            0.026377           -0.214693           -2.858188           -4.623284            1.655594           -1.518102           -1.111852            2.865665           -6.744942           -0.718811            0.120099            0.112355           -0.659774            0.000328           -1.414818           10.234519          -10.732050           -0.389337           -4.109355            0.276444           -0.159476            0.052424           -1.638167            0.004751           28.627921            0.275733            0.049872
                   0                 1.5                   2                1784                2000         2.21586e-06           70.742955            1.200000       201055.668884       205483.748684       208440.369983       208831.591376            0.018387       159013.395850       104514.820040       211906.471813       157804.253292       158028.162520       198649.012574        18465.828031       158115.992517       208831.888832       207949.067401       158091.370256       208831.629011       105611.092067       207369.449006        22450.901014       209160.969590       107306.712334       208641.691908       208204.623718       209592.033932       161355.005258       208831.658258            1.158718            0.443246            0.032249
